<svg width="200" height="83" viewBox="0 0 200 83" fill="none" class="logoLatest w-100 h-100" color="currentColor" xmlns="http://www.w3.org/2000/svg"><path fill-rule="evenodd" clip-rule="evenodd" d="M12.5384 22.957L0.898438 59.397H8.79844L11.1384 51.757H28.9484L31.2884 59.397H39.1384L27.4884 22.957H12.5384ZM18.1984 28.527H21.8184L27.1684 45.927H12.8984L18.1984 28.527Z" fill="black" class="fillLogo"></path><path fill-rule="evenodd" clip-rule="evenodd" d="M47.3991 38.9803H80.8291C83.0691 38.9803 84.6791 38.5303 85.6391 37.6403C86.6091 36.7403 87.0891 35.3703 87.0891 33.5103C87.0891 31.7503 86.5991 30.4903 85.6091 29.7103C84.6291 28.9403 83.0291 28.5503 80.8191 28.5503H47.3991V38.9803ZM78.9691 44.4603H47.3991V59.2903H39.7891V22.8203H82.9991C87.1691 22.8203 90.1991 23.7503 92.0791 25.6103C93.9591 27.4703 94.8991 30.0403 94.8991 33.3103C94.8991 39.3403 92.2591 42.9203 86.9791 44.0503L97.4291 59.2903H88.9991L78.9691 44.4603Z" fill="black" class="fillLogo"></path><path fill-rule="evenodd" clip-rule="evenodd" d="M106.039 29.0086H84.7891V22.8086H151.939V29.0086H113.599V59.2786H106.039V29.0086Z" fill="black" class="fillLogo"></path><path fill-rule="evenodd" clip-rule="evenodd" d="M190.798 21.6289C190.578 21.6289 166.918 21.9389 166.708 21.9389C163.068 22.0289 160.048 22.8689 157.648 24.4589C155.108 26.1489 153.258 28.4289 152.088 31.2989C150.918 34.1789 150.328 37.4189 150.328 41.0389C150.328 44.6589 150.918 47.8989 152.118 50.7789C153.308 53.6589 155.168 55.9389 157.708 57.6189C160.088 59.2089 163.098 60.0489 166.708 60.1389C166.938 60.1489 190.618 59.8389 190.848 59.8389L190.798 21.6289ZM166.218 53.6289C164.338 53.5089 162.838 52.9789 161.718 52.0289C160.438 50.9489 159.558 49.4789 159.078 47.6389C158.598 45.7989 158.358 43.5789 158.358 40.9989C158.358 37.1389 158.978 34.0789 160.218 31.7989C161.348 29.7289 163.318 28.6089 166.128 28.4189C166.408 28.3989 190.448 28.3889 190.748 28.3889L190.798 53.6489C190.508 53.6589 166.488 53.6489 166.218 53.6289Z" fill="black" class="fillLogo"></path><path d="M196.407 33.332H186.177C183.167 33.332 180.557 34.882 178.997 37.162C178.997 37.212 178.997 37.212 178.997 37.212C178.127 38.522 177.637 40.072 177.637 41.722V41.772C177.637 42.062 177.637 42.252 177.687 42.592C178.127 47.002 182.097 50.152 186.557 50.152H196.357C198.347 50.152 199.997 48.602 199.997 46.662V36.862C199.997 34.932 198.347 33.332 196.407 33.332ZM186.177 44.822C184.477 44.822 183.077 43.462 183.077 41.772C183.077 40.072 184.487 38.722 186.177 38.722C187.867 38.722 189.277 40.082 189.277 41.772C189.277 43.412 187.927 44.822 186.177 44.822Z" fill="#253C80"></path><path d="M188.458 60.9811V68.9011C188.458 74.6711 183.778 79.3511 178.008 79.3511H119.278C113.508 79.3511 108.828 74.6711 108.828 68.9011V60.8711" stroke="#253C80" stroke-width="6" stroke-miterlimit="10"></path><path d="M108.828 21.6908V13.7508C108.828 7.98078 113.508 3.30078 119.278 3.30078H178.008C183.778 3.30078 188.458 7.98078 188.458 13.7508V20.2508" stroke="#253C80" stroke-width="6" stroke-miterlimit="10"></path></svg>

<!-- <svg width="27" height="27" fill="none" xmlns="http://www.w3.org/2000/svg">
  <g clip-path="url(#a)">
    <path d="M26.918 13.459c0 9.291-4.168 13.459-13.46 13.459C4.169 26.918 0 22.75 0 13.458 0 4.169 4.167 0 13.459 0c9.291 0 13.459 4.167 13.459 13.459Z" fill="#44D62C" />
    <path d="M14.675 5.707H10.93l-.657 1.986h2.08v4.184h2.32v-6.17Z" fill="#000" />
    <path fill-rule="evenodd" clip-rule="evenodd" d="M17.729 16.94a4.27 4.27 0 1 1-8.54 0 4.27 4.27 0 0 1 8.54 0Zm-1.939 0a2.332 2.332 0 1 1-4.663 0 2.332 2.332 0 0 1 4.663 0Z" fill="#000" />
  </g>
  <defs>
    <clipPath id="a">
      <path fill="#fff" d="M0 0h27v27H0z" />
    </clipPath>
  </defs>
</svg> -->